{
  "implemented": true,
  "name": "Forretress",
  "nationalPokedexNumber": 205,
  "primaryType": "bug",
  "secondaryType": "steel",
  "abilities": [
    "sturdy",
    "h:overcoat"
  ],
  "baseStats": {
    "hp": 75,
    "attack": 90,
    "defence": 140,
    "special_attack": 60,
    "special_defence": 60,
    "speed": 40
  },
  "features": [
    "shulker"
  ],
  "behaviour": {
    "resting": {
      "canSleep": true,
      "willSleepOnBed": true,
      "depth": "normal",
      "light": "0-4"
    }
  },
  "catchRate": 75,
  "maleRatio": 0.5,
  "shoulderMountable": false,
  "baseExperienceYield": 163,
  "experienceGroup": "medium_fast",
  "eggCycles": 20,
  "eggGroups": [
    "bug"
  ],
  "drops": {
    "amount": 4,
    "entries": [
      {
        "item": "minecraft:string",
        "quantityRange": "0-2"
      },
      {
        "item": "cobblemon:occa_berry",
        "percentage": 5.0
      },
      {
        "item": "cobblemon:iron_ball",
        "percentage": 5.0
      }
    ]
  },
  "moves": [
    "1:autotomize",
    "1:bugbite",
    "1:heavyslam",
    "1:magnetrise",
    "1:mirrorshot",
    "1:protect",
    "1:selfdestruct",
    "1:tackle",
    "1:toxicspikes",
    "1:zapcannon",
    "12:takedown",
    "17:rapidspin",
    "20:bide",
    "20:rollout",
    "23:curse",
    "23:naturalgift",
    "28:spikes",
    "32:payback",
    "36:explosion",
    "42:irondefense",
    "46:gyroball",
    "50:doubleedge",
    "tm:attract",
    "tm:bodypress",
    "tm:bodyslam",
    "tm:bugbite",
    "tm:bugbuzz",
    "tm:bulldoze",
    "tm:captivate",
    "tm:confide",
    "tm:curse",
    "tm:dig",
    "tm:doubleedge",
    "tm:doubleteam",
    "tm:drillrun",
    "tm:earthpower",
    "tm:earthquake",
    "tm:endure",
    "tm:explosion",
    "tm:facade",
    "tm:flashcannon",
    "tm:frustration",
    "tm:gigadrain",
    "tm:gigaimpact",
    "tm:gravity",
    "tm:gyroball",
    "tm:hardpress",
    "tm:heavyslam",
    "tm:helpinghand",
    "tm:hiddenpower",
    "tm:hyperbeam",
    "tm:icespinner",
    "tm:irondefense",
    "tm:ironhead",
    "tm:lightscreen",
    "tm:lunge",
    "tm:metalsound",
    "tm:naturalgift",
    "tm:painsplit",
    "tm:payback",
    "tm:poisonjab",
    "tm:pounce",
    "tm:protect",
    "tm:raindance",
    "tm:reflect",
    "tm:rest",
    "tm:return",
    "tm:reversal",
    "tm:rockblast",
    "tm:rockpolish",
    "tm:rockslide",
    "tm:rocksmash",
    "tm:rocktomb",
    "tm:round",
    "tm:sandstorm",
    "tm:sandtomb",
    "tm:secretpower",
    "tm:seedbomb",
    "tm:sleeptalk",
    "tm:smartstrike",
    "tm:solarbeam",
    "tm:spikes",
    "tm:stealthrock",
    "tm:steelbeam",
    "tm:stoneedge",
    "tm:strength",
    "tm:strugglebug",
    "tm:substitute",
    "tm:sunnyday",
    "tm:swagger",
    "tm:swift",
    "tm:takedown",
    "tm:terablast",
    "tm:thunderwave",
    "tm:toxic",
    "tm:toxicspikes",
    "tm:venoshock",
    "tm:voltswitch",
    "tutor:allyswitch",
    "tutor:attract",
    "tutor:bide",
    "tutor:block",
    "tutor:bodyslam",
    "tutor:bugbite",
    "tutor:counter",
    "tutor:curse",
    "tutor:defensecurl",
    "tutor:doubleedge",
    "tutor:doubleteam",
    "tutor:drillrun",
    "tutor:endure",
    "tutor:explosion",
    "tutor:frustration",
    "tutor:gigadrain",
    "tutor:gravity",
    "tutor:headbutt",
    "tutor:hiddenpower",
    "tutor:hyperbeam",
    "tutor:irondefense",
    "tutor:laserfocus",
    "tutor:magnetrise",
    "tutor:mimic",
    "tutor:painsplit",
    "tutor:protect",
    "tutor:rapidspin",
    "tutor:rest",
    "tutor:return",
    "tutor:rockslide",
    "tutor:rocksmash",
    "tutor:rollout",
    "tutor:sandstorm",
    "tutor:selfdestruct",
    "tutor:signalbeam",
    "tutor:sleeptalk",
    "tutor:snore",
    "tutor:solarbeam",
    "tutor:spikes",
    "tutor:stealthrock",
    "tutor:strength",
    "tutor:stringshot",
    "tutor:substitute",
    "tutor:sunnyday",
    "tutor:swagger",
    "tutor:sweetscent",
    "tutor:tackle",
    "tutor:takedown",
    "tutor:telekinesis",
    "tutor:toxic"
  ],
  "labels": [
    "gen2"
  ],
  "pokedex": [
    "cobblemon.species.forretress.desc"
  ],
  "preEvolution": "pineco",
  "evolutions": [],
  "baseScale": 0.7,
  "hitbox": {
    "width": 1.25,
    "height": 1.7,
    "fixed": false
  },
  "baseFriendship": 70,
  "evYield": {
    "hp": 0,
    "attack": 0,
    "defence": 2,
    "special_attack": 0,
    "special_defence": 0,
    "speed": 0
  },
  "height": 12,
  "weight": 1258,
  "aspects": [],
  "cannotDynamax": false
}