{
	"format_version": "1.12.0",
	"minecraft:geometry": [
		{
			"description": {
				"identifier": "geometry.goomy",
				"texture_width": 64,
				"texture_height": 32,
				"visible_bounds_width": 3,
				"visible_bounds_height": 2.5,
				"visible_bounds_offset": [0, 0.75, 0]
			},
			"bones": [
				{
					"name": "goomy",
					"pivot": [0, 0, 0]
				},
				{
					"name": "body",
					"parent": "goomy",
					"pivot": [0, 5, -2]
				},
				{
					"name": "torso",
					"parent": "body",
					"pivot": [0, 0, -7],
					"cubes": [
						{"origin": [-5, 0.01, -7], "size": [10, 7, 10], "inflate": 0.01, "uv": [0, 15]}
					]
				},
				{
					"name": "mouth",
					"parent": "torso",
					"pivot": [0, 3.01, -6.92],
					"cubes": [
						{"origin": [-4, 1.01, -6.92], "size": [8, 4, 0], "uv": [40, 25]}
					]
				},
				{
					"name": "head",
					"parent": "torso",
					"pivot": [0, 9, -2],
					"cubes": [
						{"origin": [-5, 5.01, -7], "size": [10, 5, 10], "uv": [0, 0]}
					]
				},
				{
					"name": "eyes",
					"parent": "head",
					"pivot": [0, 7.01, -7.01]
				},
				{
					"name": "eye_left",
					"parent": "eyes",
					"pivot": [2, 7.01, -7.01],
					"cubes": [
						{"origin": [1.5, 6.51, -7.02], "size": [1, 1, 0], "uv": [0, 0]}
					]
				},
				{
					"name": "eyelid_left",
					"parent": "eye_left",
					"pivot": [2, 7.01, -6.31],
					"cubes": [
						{"origin": [1, 6.51, -6.92], "size": [2, 1, 1], "inflate": 0.01, "uv": [3, 0]}
					]
				},
				{
					"name": "eye_right",
					"parent": "eyes",
					"pivot": [-2, 7.01, -7.01],
					"cubes": [
						{"origin": [-2.5, 6.51, -7.02], "size": [1, 1, 0], "uv": [2, 0], "mirror": true}
					]
				},
				{
					"name": "eyelid_right",
					"parent": "eye_right",
					"pivot": [-2, 7.01, -6.31],
					"cubes": [
						{"origin": [-3, 6.51, -6.92], "size": [2, 1, 1], "inflate": 0.01, "uv": [0, 2], "mirror": true}
					]
				},
				{
					"name": "antennae",
					"parent": "head",
					"pivot": [0, 10, -5]
				},
				{
					"name": "antenna_front_left",
					"parent": "antennae",
					"pivot": [2.5, 10, -5.5],
					"rotation": [0, 0, 15]
				},
				{
					"name": "antenna_front_left_rotation",
					"parent": "antenna_front_left",
					"pivot": [2.5, 10, -5.5],
					"rotation": [42.5, 0, 0],
					"cubes": [
						{"origin": [2.5, 10, -7.5], "size": [0, 4, 2], "uv": [30, -2]}
					]
				},
				{
					"name": "antenna_back_left",
					"parent": "antennae",
					"pivot": [2.5, 10, -3.5],
					"rotation": [0, 0, 12.5]
				},
				{
					"name": "antenna_back_left_rotation",
					"parent": "antenna_back_left",
					"pivot": [2.5, 10, -3.5],
					"rotation": [5, 0, 0],
					"cubes": [
						{"origin": [2.5, 10, -5.5], "size": [0, 3, 3], "uv": [30, 1]}
					]
				},
				{
					"name": "antenna_back_left2",
					"parent": "antenna_back_left_rotation",
					"pivot": [2.5, 13, -5.5],
					"cubes": [
						{"origin": [2.5, 13, -5.5], "size": [0, 5, 3], "inflate": 0.01, "uv": [30, 12]}
					]
				},
				{
					"name": "antenna_front_right",
					"parent": "antennae",
					"pivot": [-2.5, 10, -5.5],
					"rotation": [0, 0, -15]
				},
				{
					"name": "antenna_front_right_rotation",
					"parent": "antenna_front_right",
					"pivot": [-2.5, 10, -5.5],
					"rotation": [42.5, 0, 0],
					"cubes": [
						{"origin": [-2.5, 10, -7.5], "size": [0, 4, 2], "uv": [34, -2], "mirror": true}
					]
				},
				{
					"name": "antenna_back_right",
					"parent": "antennae",
					"pivot": [-2.5, 10, -3.5],
					"rotation": [0, 0, -12.5]
				},
				{
					"name": "antenna_back_right_rotation",
					"parent": "antenna_back_right",
					"pivot": [-2.5, 10, -3.5],
					"rotation": [5, 0, 0],
					"cubes": [
						{"origin": [-2.5, 10, -5.5], "size": [0, 3, 3], "uv": [30, 4], "mirror": true}
					]
				},
				{
					"name": "antenna_back_right2",
					"parent": "antenna_back_right_rotation",
					"pivot": [-2.5, 13, -5.5],
					"cubes": [
						{"origin": [-2.5, 13, -5.5], "size": [0, 5, 3], "inflate": 0.01, "uv": [30, 17], "mirror": true}
					]
				},
				{
					"name": "slime",
					"parent": "torso",
					"pivot": [0, 0, -7],
					"cubes": [
						{"origin": [-6, 0, -8.5], "size": [12, 0, 11], "inflate": 0.02, "uv": [29, 0]}
					]
				},
				{
					"name": "slime2",
					"parent": "slime",
					"pivot": [0, 0, 2.5],
					"cubes": [
						{"origin": [-3, 0.01, 2.5], "size": [6, 2, 4], "uv": [36, 19]},
						{"origin": [-6, 0, 2.5], "size": [12, 0, 8], "inflate": 0.01, "uv": [32, 11]}
					]
				}
			]
		}
	]
}