{
  "species": "cobblemon:pikachu",
  "order": 3,
  "variations": [
    {
      "aspects": ["female", "alolan" ],
      "model": "cobblemon:pikachu_alolan_female.geo",
      "texture": "cobblemon:textures/pokemon/0025_pikachu/pikachu_alola.png"
    },
    {
      "aspects": ["female", "region-bias-alola" ],
      "model": "cobblemon:pikachu_alolan_female.geo",
      "texture": "cobblemon:textures/pokemon/0025_pikachu/pikachu_alola.png"
    },
    {
      "aspects": [
        "female",
        "shiny",
        "alolan"
      ],
      "texture": "cobblemon:textures/pokemon/0025_pikachu/pikachu_alola_shiny.png"
    },
    {
      "aspects": [
        "female",
        "shiny",
        "region-bias-alola"
      ],
      "texture": "cobblemon:textures/pokemon/0025_pikachu/pikachu_alola_shiny.png"
    }
  ]
}