{
  "implemented": true,
  "name": "Frillish",
  "nationalPokedexNumber": 592,
  "primaryType": "water",
  "secondaryType": "ghost",
  "abilities": [
    "waterabsorb",
    "cursedbody",
    "h:damp"
  ],
  "drops": {
    "amount": 2,
    "entries": [
      {
        "item": "minecraft:glow_ink_sac",
        "quantityRange": "0-1"
      },
      {
        "item": "cobblemon:kasib_berry",
        "percentage": 2.5
      }
    ]
  },
  "baseStats": {
    "hp": 55,
    "attack": 40,
    "defence": 50,
    "special_attack": 65,
    "special_defence": 85,
    "speed": 40
  },
  "behaviour": {
    "moving": {
      "walk": {
        "avoidsLand": true
      },
      "swim": {
        "swimSpeed": 0.2,
        "canSwimInWater": true,
        "canBreatheUnderwater": true
      }
    },
    "resting": {
      "canSleep": true,
      "willSleepOnBed": false,
      "depth": "normal",
      "light": "0-4"
    }
  },
  "catchRate": 190,
  "maleRatio": 0.5,
  "shoulderMountable": false,
  "baseExperienceYield": 67,
  "experienceGroup": "medium_fast",
  "eggCycles": 20,
  "eggGroups": [
    "amorphous"
  ],
  "moves": [
    "1:absorb",
    "1:bubble",
    "1:watergun",
    "1:watersport",
    "4:poisonsting",
    "8:nightshade",
    "12:waterpulse",
    "13:bubblebeam",
    "16:raindance",
    "20:hex",
    "24:brine",
    "27:ominouswind",
    "28:recover",
    "32:shadowball",
    "36:whirlpool",
    "41:hydropump",
    "44:destinybond",
    "48:waterspout",
    "55:wringout",
    "egg:acidarmor",
    "egg:bubblebeam",
    "egg:confuseray",
    "egg:constrict",
    "egg:mist",
    "egg:painsplit",
    "egg:recover",
    "egg:strengthsap",
    "tm:attract",
    "tm:blizzard",
    "tm:brine",
    "tm:confide",
    "tm:darkpulse",
    "tm:dazzlinggleam",
    "tm:dive",
    "tm:doubleteam",
    "tm:dreameater",
    "tm:endure",
    "tm:energyball",
    "tm:facade",
    "tm:flash",
    "tm:frustration",
    "tm:gigadrain",
    "tm:hail",
    "tm:hex",
    "tm:hiddenpower",
    "tm:hydropump",
    "tm:icebeam",
    "tm:icywind",
    "tm:imprison",
    "tm:protect",
    "tm:psychic",
    "tm:psychup",
    "tm:raindance",
    "tm:rest",
    "tm:return",
    "tm:round",
    "tm:safeguard",
    "tm:scald",
    "tm:secretpower",
    "tm:shadowball",
    "tm:sleeptalk",
    "tm:sludgebomb",
    "tm:sludgewave",
    "tm:snore",
    "tm:substitute",
    "tm:surf",
    "tm:swagger",
    "tm:taunt",
    "tm:toxic",
    "tm:trick",
    "tm:trickroom",
    "tm:waterfall",
    "tm:whirlpool",
    "tm:willowisp",
    "tutor:bind",
    "tutor:darkpulse",
    "tutor:gigadrain",
    "tutor:icywind",
    "tutor:magiccoat",
    "tutor:painsplit",
    "tutor:poltergeist",
    "tutor:shockwave",
    "tutor:sleeptalk",
    "tutor:snore",
    "tutor:spite",
    "tutor:trick",
    "tutor:waterpulse"
  ],
  "labels": [
    "gen5"
  ],
  "pokedex": [
    "cobblemon.species.frillish.desc"
  ],
  "evolutions": [
    {
      "id": "frillish_jellicent",
      "variant": "level_up",
      "result": "jellicent",
      "consumeHeldItem": false,
      "learnableMoves": [],
      "requirements": [
        {
          "variant": "level",
          "minLevel": 40
        }
      ]
    }
  ],
  "baseScale": 1.1,
  "hitbox": {
    "width": 0.65,
    "height": 1.45,
    "fixed": false
  },
  "baseFriendship": 50,
  "evYield": {
    "hp": 0,
    "attack": 0,
    "defence": 0,
    "special_attack": 0,
    "special_defence": 1,
    "speed": 0
  },
  "height": 12,
  "weight": 330,
  "aspects": [],
  "cannotDynamax": false
}