{
  "implemented": true,
  "name": "Litwick",
  "nationalPokedexNumber": 607,
  "primaryType": "ghost",
  "secondaryType": "fire",
  "abilities": [
    "flashfire",
    "flamebody",
    "h:infiltrator"
  ],
  "drops": {
    "amount": 3,
    "entries": [
      {
        "item": "minecraft:candle"
      },
      {
        "item": "cobblemon:dusk_stone",
        "percentage": 2.5
      },
      {
        "item": "cobblemon:rawst_berry",
        "percentage": 2.5
      }
    ]
  },
  "baseStats": {
    "hp": 50,
    "attack": 30,
    "defence": 55,
    "special_attack": 65,
    "special_defence": 55,
    "speed": 20
  },
  "catchRate": 190,
  "maleRatio": 0.5,
  "shoulderMountable": true,
  "baseExperienceYield": 55,
  "experienceGroup": "medium_slow",
  "eggCycles": 20,
  "eggGroups": [
    "amorphous"
  ],
  "behaviour": {
    "resting": {
      "canSleep": true,
      "willSleepOnBed": true,
      "depth": "normal",
      "light": "12-15"
    }
  },
  "moves": [
    "1:astonish",
    "1:smog",
    "4:ember",
    "8:minimize",
    "12:confuseray",
    "16:hex",
    "20:flameburst",
    "20:willowisp",
    "24:firespin",
    "28:nightshade",
    "32:curse",
    "36:shadowball",
    "40:inferno",
    "44:imprison",
    "48:painsplit",
    "52:overheat",
    "56:memento",
    "egg:acid",
    "egg:acidarmor",
    "egg:captivate",
    "egg:clearsmog",
    "egg:endure",
    "egg:haze",
    "egg:heatwave",
    "egg:powersplit",
    "tm:allyswitch",
    "tm:attract",
    "tm:burningjealousy",
    "tm:calmmind",
    "tm:confuseray",
    "tm:confide",
    "tm:curse",
    "tm:darkpulse",
    "tm:doubleteam",
    "tm:dreameater",
    "tm:embargo",
    "tm:endure",
    "tm:energyball",
    "tm:facade",
    "tm:fireblast",
    "tm:firespin",
    "tm:flamecharge",
    "tm:flamethrower",
    "tm:flareblitz",
    "tm:flash",
    "tm:frustration",
    "tm:haze",
    "tm:heatwave",
    "tm:hex",
    "tm:hiddenpower",
    "tm:imprison",
    "tm:incinerate",
    "tm:mysticalfire",
    "tm:nightshade",
    "tm:overheat",
    "tm:painsplit",
    "tm:payback",
    "tm:poltergeist",
    "tm:protect",
    "tm:psychic",
    "tm:psychup",
    "tm:rest",
    "tm:return",
    "tm:round",
    "tm:safeguard",
    "tm:secretpower",
    "tm:shadowball",
    "tm:skittersmack",
    "tm:sleeptalk",
    "tm:snore",
    "tm:solarbeam",
    "tm:spite",
    "tm:substitute",
    "tm:sunnyday",
    "tm:swagger",
    "tm:taunt",
    "tm:temperflare",
    "tm:telekinesis",
    "tm:terablast",
    "tm:thief",
    "tm:toxic",
    "tm:trick",
    "tm:trickroom",
    "tm:willowisp",
    "tutor:allyswitch",
    "tutor:burningjealousy",
    "tutor:darkpulse",
    "tutor:heatwave",
    "tutor:painsplit",
    "tutor:poltergeist",
    "tutor:shockwave",
    "tutor:skittersmack",
    "tutor:sleeptalk",
    "tutor:snore",
    "tutor:spite",
    "tutor:telekinesis",
    "tutor:trick"
  ],
  "labels": [
    "gen5"
  ],
  "pokedex": [
    "cobblemon.species.litwick.desc"
  ],
  "evolutions": [
    {
      "id": "litwick_lampent",
      "variant": "level_up",
      "result": "lampent",
      "consumeHeldItem": false,
      "learnableMoves": [],
      "requirements": [
        {
          "variant": "level",
          "minLevel": 41
        }
      ]
    }
  ],
  "baseScale": 1,
  "hitbox": {
    "width": 0.5,
    "height": 0.5,
    "fixed": false
  },
  "baseFriendship": 50,
  "evYield": {
    "hp": 0,
    "attack": 0,
    "defence": 0,
    "special_attack": 1,
    "special_defence": 0,
    "speed": 0
  },
  "height": 3,
  "weight": 31,
  "aspects": [],
  "cannotDynamax": false
}