{
	"format_version": "1.8.0",
	"animations": {
		"animation.woobat.air_idle": {
			"loop": true,
			"bones": {
				"left_wing": {
					"rotation": [25, 0, -22.5]
				},
				"left_wing2": {
					"rotation": [0, 7.5, 0]
				},
				"right_wing": {
					"rotation": [25, 0, 22.5]
				},
				"right_wing2": {
					"rotation": [0, -7.5, 0]
				}
			}
		},
		"animation.woobat.air_fly": {
			"loop": true,
			"bones": {
				"left_wing": {
					"rotation": [35, 0, -22.5]
				},
				"left_wing2": {
					"rotation": [0, 7.5, 0]
				},
				"right_wing": {
					"rotation": [35, 0, 22.5]
				},
				"right_wing2": {
					"rotation": [0, -7.5, 0]
				},
				"body": {
					"rotation": [0, 0, 0],
					"position": [0, 1, 0]
				},
				"torso": {
					"rotation": [17.5, 0, 0]
				},
				"nose": {
					"rotation": [-5, 0, 0]
				},
				"back_fluff": {
					"rotation": [7.5, 0, 0]
				},
				"back_fluff2": {
					"rotation": [5, 0, 0]
				}
			}
		},
		"animation.woobat.cry": {
			"animation_length": 1.25,
			"bones": {
				"mouth_open": {
					"position": {
						"0.2083": [0, 0, 0],
						"0.25": {"pre": [0, 0, 0], "post": [0, 0, -0.1]},
						"1.0": {"pre": [0, 0, -0.1], "post": [0, 0, -0.1]},
						"1.0417": {"pre": [0, 0, -0.1], "post": [0, 0, 0]}
					}
				}
			}
		}
	}
}