{
    "biomes": "#cobblemon:is_snowy",
    "adapt_noise": false,
    "spawn_overrides": {},
    "type": "minecraft:jigsaw",
    "start_pool": "cobblemon:ruins/frozen_gimmi_tower",
    "size": 7,
    "step": "surface_structures",
    "start_height": {
        "absolute": -1
    },
    "project_start_to_heightmap": "WORLD_SURFACE_WG",
    "max_distance_from_center": 100,
    "terrain_adaptation": "beard_box",
    "use_expansion_hack": false
}