{
	"format_version": "1.8.0",
	"animations": {
		"animation.overqwil.ground_idle": {
			"loop": true,
			"bones": {
				"overqwil": {
					"rotation": [5, 0, 0],
					"position": [0, 2, 0]
				},
				"mouth_open": {
					"position": [0, 0, 0]
				}
			}
		},
		"animation.overqwil.blink": {
			"animation_length": 0.1667,
			"bones": {
				"eyelid_left": {
					"position": [0, 0, -0.1]
				},
				"eyelid_right": {
					"position": [0, 0, -0.1]
				}
			}
		}
	}
}