{
  "implemented": true,
  "name": "Eldegoss",
  "nationalPokedexNumber": 830,
  "primaryType": "grass",
  "abilities": [
    "cottondown",
    "regenerator",
    "h:effectspore"
  ],
  "baseStats": {
    "hp": 60,
    "attack": 50,
    "defence": 90,
    "special_attack": 80,
    "special_defence": 120,
    "speed": 60
  },
  "catchRate": 75,
  "maleRatio": 0.5,
  "shoulderMountable": false,
  "baseExperienceYield": 161,
  "experienceGroup": "medium_fast",
  "eggCycles": 20,
  "eggGroups": [
    "grass"
  ],
  "moves": [
    "1:leafage",
    "1:rapidspin",
    "1:sing",
    "1:sweetscent",
    "12:razorleaf",
    "16:round",
    "23:leaftornado",
    "28:synthesis",
    "34:hypervoice",
    "40:aromatherapy",
    "46:leafstorm",
    "52:cottonguard",
    "tm:attract",
    "tm:bulletseed",
    "tm:charm",
    "tm:endure",
    "tm:energyball",
    "tm:facade",
    "tm:gigadrain",
    "tm:gigaimpact",
    "tm:grassknot",
    "tm:grassyterrain",
    "tm:helpinghand",
    "tm:hyperbeam",
    "tm:hypervoice",
    "tm:leafstorm",
    "tm:lightscreen",
    "tm:magicalleaf",
    "tm:pollenpuff",
    "tm:protect",
    "tm:rest",
    "tm:round",
    "tm:seedbomb",
    "tm:sleeptalk",
    "tm:snore",
    "tm:solarbeam",
    "tm:substitute",
    "tm:sunnyday",
    "tm:weatherball",
    "tutor:grassyglide"
  ],
  "labels": [
    "gen8"
  ],
  "pokedex": [
    "cobblemon.species.eldegoss.desc"
  ],
  "preEvolution": "gossifleur",
  "evolutions": [],
  "baseScale": 0.6,
  "hitbox": {
    "width": 0.6,
    "height": 0.7,
    "fixed": false
  },
  "baseFriendship": 50,
  "evYield": {
    "hp": 0,
    "attack": 0,
    "defence": 0,
    "special_attack": 0,
    "special_defence": 2,
    "speed": 0
  },
  "height": 5,
  "weight": 25,
  "aspects": [],
  "cannotDynamax": false,
  "drops": {
    "amount": 3,
    "entries": [
      {
        "item": "minecraft:white_wool",
        "quantityRange": "1-2"
      },
      {
        "item": "cobblemon:coba_berry",
        "percentage": 5.0
      }
    ]
  }
}