{
  "species": "cobblemon:petilil",
  "order": 1,
  "variations": [
    {
      "aspects": ["region-bias-hisui"],
      "poser": "cobblemon:petilil_hisuian",
      "model": "cobblemon:petilil_hisuian.geo",
      "texture": "cobblemon:textures/pokemon/0548_petilil/petilil_hisuian.png",
      "layers": []
    },
    {
      "aspects": [
        "shiny", "region-bias-hisui"
      ],
      "texture": "cobblemon:textures/pokemon/0548_petilil/petilil_hisuian_shiny.png"
    }
  ]
}